../Core/Src/touch_manager.c:10:5:i2c_touch_read	32	static
../Core/Src/touch_manager.c:30:5:i2c_touch_write	24	static
../Core/Src/touch_manager.c:41:6:i2c_touch_init	16	static
../Core/Src/touch_manager.c:95:5:i2c_touch_detect	16	static
../Core/Src/touch_manager.c:130:6:i2c_touch_update	24	static
../Core/Src/touch_manager.c:190:6:i2c_touch_handler	8	static
